%YAML 1.1
%TAG !u! tag:unity3d.com,2011:
--- !u!114 &-1083579288103854818
MonoBehaviour:
  m_ObjectHideFlags: 11
  m_CorrespondingSourceObject: {fileID: 0}
  m_PrefabInstance: {fileID: 0}
  m_PrefabAsset: {fileID: 0}
  m_GameObject: {fileID: 0}
  m_Enabled: 1
  m_EditorHideFlags: 0
  m_Script: {fileID: 11500000, guid: da692e001514ec24dbc4cca1949ff7e8, type: 3}
  m_Name: 
  m_EditorClassIdentifier: 
  version: 11
--- !u!21 &2100000
Material:
  serializedVersion: 6
  m_ObjectHideFlags: 0
  m_CorrespondingSourceObject: {fileID: 0}
  m_PrefabInstance: {fileID: 0}
  m_PrefabAsset: {fileID: 0}
  m_Name: PoisonParticles_2
  m_Shader: {fileID: 4800000, guid: fca5a3ccacf67fa49b10c892c12ecb51, type: 3}
  m_ShaderKeywords: ETC1_EXTERNAL_ALPHA _DISABLE_SSR_TRANSPARENT _NORMALMAP_TANGENT_SPACE
  m_LightmapFlags: 4
  m_EnableInstancingVariants: 0
  m_DoubleSidedGI: 0
  m_CustomRenderQueue: -1
  stringTagMap: {}
  disabledShaderPasses:
  - DistortionVectors
  - MOTIONVECTORS
  - TransparentDepthPrepass
  - TransparentDepthPostpass
  - TransparentBackface
  - RayTracingPrepass
  m_SavedProperties:
    serializedVersion: 3
    m_TexEnvs:
    - _AlphaMask:
        m_Texture: {fileID: 0}
        m_Scale: {x: 1, y: 1}
        m_Offset: {x: 0, y: 0}
    - _Displacement:
        m_Texture: {fileID: 2800000, guid: 6eb1c1d87ad6b9949b998d6c52034829, type: 3}
        m_Scale: {x: 1, y: 1}
        m_Offset: {x: 0, y: 0}
    - _DisplacementGuide:
        m_Texture: {fileID: 2800000, guid: 215aedee2e9e84c4099977d896f30ecc, type: 3}
        m_Scale: {x: 1, y: 1}
        m_Offset: {x: 0, y: 0}
    - _GradientMap:
        m_Texture: {fileID: 2800000, guid: f6bec7d270a92724997e8ccf5525c4f3, type: 3}
        m_Scale: {x: 1, y: 1}
        m_Offset: {x: 0, y: 0}
    - _MainTex:
        m_Texture: {fileID: 2800000, guid: a7366e40196acaf4b9ab70e778b8ac92, type: 3}
        m_Scale: {x: 1, y: 1}
        m_Offset: {x: 0, y: 0}
    - _Noise:
        m_Texture: {fileID: 2800000, guid: 1e5605ac2f3669a468c2f01ddac8a596, type: 3}
        m_Scale: {x: 1, y: 1}
        m_Offset: {x: 0, y: 0}
    - _SecondaryTex:
        m_Texture: {fileID: 2800000, guid: 215aedee2e9e84c4099977d896f30ecc, type: 3}
        m_Scale: {x: 1, y: 1}
        m_Offset: {x: 0, y: 0}
    m_Floats:
    - _AlphaMaskStrenght: 1
    - _Banding: 0
    - _Bands: 10
    - _BurnSize: 0
    - _CircleMask: 0
    - _ColorWriteMasks: 15
    - _Contrast: 1
    - _Culling: 2
    - _Culls: 0
    - _Cutoff: 0
    - _CutoffSoftness: 0.047
    - _DisplacementAmount: 0
    - _DstBlends: 1
    - _Edge: 0
    - _EdgeWidth: 1
    - _InnerRadius: 0
    - _IntersectionThresholdMax: -12.89
    - _NoiseStrenght: 0
    - _OuterRadius: 0.218
    - _Outline: 0
    - _PolarCoords: 0
    - _Power: 1
    - _RectHeight: 0
    - _RectMask: 0
    - _RectMaskCutoff: 0
    - _RectSmoothness: 0
    - _RectWidth: 0
    - _SecondTex: 0
    - _Smoothness: 0.169
    - _SoftBlend: 0
    - _SrcBlends: 1
    - _VertexOffset: 0
    - _VertexOffsetAmount: 0
    - _ZTests: 4
    - _ZWrites: 0
    m_Colors:
    - _BurnCol: {r: 0.109054826, g: 1.6603775, b: 0, a: 1}
    - _Color: {r: 0.019002708, g: 0.4433962, b: 0, a: 1}
    - _DisplacementSpeed: {r: 1, g: 0, b: 0, a: 0}
    - _EdgeColor: {r: 1, g: 1, b: 1, a: 1}
    - _NoiseDirection: {r: 0.1, g: 0, b: 0, a: 0}
    - _PanningSpeed: {r: 0, g: 0, b: 0, a: 0}
    - _SecondaryPanningSpeed: {r: 0, g: 0, b: 0, a: 0}
    - _TextureDirection: {r: 0, g: 0, b: 0, a: 0}
  m_BuildTextureStacks: []
